3. Spatial joins and filters
…
net %>%
  activate("edges") %>%
  filter(edge_crosses(.E()))

#> # A sfnetwork with 701 nodes and 0 edges
#> #
#> # CRS:  EPSG:3035 
#> #
#> # A rooted forest with 701 trees with spatially explicit edges
#> #
#> # A tibble: 0 × 5
#> # ℹ 5 variables: from <int>, to <int>, name <chr>, type <fct>,
#> #   geometry <GEOMETRY [m]>
#> #
#> # A tibble: 701 × 1
#>            geometry
#>         <POINT [m]>
#> 1 (4151491 3207923)
#> 2 (4151474 3207946)
#> 3 (4151398 3207777)
#> # ℹ 698 more rows
If you just want to store the information about the investigated
spatial relation, without filtering the network, you can also use the
spatial node and edge query functions inside a
dplyr::mutate() verb.

net %>%
  mutate(in_poly = node_intersects(poly))

#> # A sfnetwork with 701 nodes and 851 edges
#> #
#> # CRS:  EPSG:3035 
#> #
#> # A directed multigraph with 14 components with spatially explicit edges
#> #
#> # A tibble: 701 × 2
#>            geometry in_poly
#>         <POINT [m]> <lgl>  
#> 1 (4151491 3207923) TRUE   
#> 2 (4151474 3207946) TRUE   
#> 3 (4151398 3207777) TRUE   
#> 4 (4151370 3207673) TRUE   
#> 5 (4151408 3207539) TRUE   
#> 6 (4151421 3207592) TRUE   
#> # ℹ 695 more rows
#> #
#> # A tibble: 851 × 5
#>    from    to name                  type                                geometry
#>   <int> <int> <chr>                 <fct>                       <LINESTRING [m]>
#> 1     1     2 Havixbecker Strasse   residential (4151491 3207923, 4151474 32079…
#> 2     3     4 Pienersallee          secondary   (4151398 3207777, 4151390 32077…
#> 3     5     6 Schulte-Bernd-Strasse residential (4151408 3207539, 4151417 32075…
#> # ℹ 848 more rows
…
codes = net %>%
  st_make_grid(n = c(2, 2)) %>%
  st_as_sf() %>%
  mutate(post_code = as.character(seq(1000, 1000 + n() * 10 - 10, 10)))

joined = st_join(net, codes, join = st_intersects)
joined

#> # A sfnetwork with 701 nodes and 851 edges
#> #
#> # CRS:  EPSG:3035 
#> #
#> # A directed multigraph with 14 components with spatially explicit edges
#> #
#> # A tibble: 701 × 2
#>            geometry post_code
#>         <POINT [m]> <chr>    
#> 1 (4151491 3207923) 1020     
#> 2 (4151474 3207946) 1020     
#> 3 (4151398 3207777) 1020     
#> 4 (4151370 3207673) 1020     
#> 5 (4151408 3207539) 1020     
#> 6 (4151421 3207592) 1020     
#> # ℹ 695 more rows
#> #
#> # A tibble: 851 × 5
#>    from    to name                  type                                geometry
#>   <int> <int> <chr>                 <fct>                       <LINESTRING [m]>
#> 1     1     2 Havixbecker Strasse   residential (4151491 3207923, 4151474 32079…
#> 2     3     4 Pienersallee          secondary   (4151398 3207777, 4151390 32077…
#> 3     5     6 Schulte-Bernd-Strasse residential (4151408 3207539, 4151417 32075…
#> # ℹ 848 more rows
…
# Join on nodes gives a warning that only the first match per node is joined.
# The number of nodes in the resulting network remains the same.
st_join(net, two_equal_polys, join = st_intersects)
#> Warning: Multiple matches were detected from some nodes. Only the first match
#> is considered

#> # A sfnetwork with 701 nodes and 851 edges
#> #
#> # CRS:  EPSG:3035 
#> #
#> # A directed multigraph with 14 components with spatially explicit edges
#> #
#> # A tibble: 701 × 2
#>            geometry foo  
#>         <POINT [m]> <chr>
#> 1 (4151491 3207923) a    
#> 2 (4151474 3207946) a    
#> 3 (4151398 3207777) a    
#> 4 (4151370 3207673) a    
#> 5 (4151408 3207539) a    
#> 6 (4151421 3207592) a    
#> # ℹ 695 more rows
#> #
#> # A tibble: 851 × 5
#>    from    to name                  type                                geometry
#>   <int> <int> <chr>                 <fct>                       <LINESTRING [m]>
#> 1     1     2 Havixbecker Strasse   residential (4151491 3207923, 4151474 32079…
#> 2     3     4 Pienersallee          secondary   (4151398 3207777, 4151390 32077…
#> 3     5     6 Schulte-Bernd-Strasse residential (4151408 3207539, 4151417 32075…
#> # ℹ 848 more rows

# Join on edges duplicates edges that have multiple matches.
# The number of edges in the resulting network is higher than in the original.
net %>%
  activate("edges") %>%
  st_join(two_equal_polys, join = st_intersects)

#> # A sfnetwork with 701 nodes and 1097 edges
#> #
#> # CRS:  EPSG:3035 
#> #
#> # A directed multigraph with 14 components with spatially explicit edges
#> #
#> # A tibble: 1,097 × 6
#>    from    to name                  type                          geometry foo  
#>   <int> <int> <chr>                 <fct>                 <LINESTRING [m]> <chr>
#> 1     1     2 Havixbecker Strasse   residential (4151491 3207923, 4151474… a    
#> 2     1     2 Havixbecker Strasse   residential (4151491 3207923, 4151474… b    
#> 3     3     4 Pienersallee          secondary   (4151398 3207777, 4151390… a    
#> 4     3     4 Pienersallee          secondary   (4151398 3207777, 4151390… b    
#> 5     5     6 Schulte-Bernd-Strasse residential (4151408 3207539, 4151417… a    
#> 6     5     6 Schulte-Bernd-Strasse residential (4151408 3207539, 4151417… b    
#> # ℹ 1,091 more rows
#> #
#> # A tibble: 701 × 1
#>            geometry
#>         <POINT [m]>
#> 1 (4151491 3207923)
#> 2 (4151474 3207946)
#> 3 (4151398 3207777)
#> # ℹ 698 more rows
…
#> # A sfnetwork with 4 nodes and 4 edges
#> #
#> # CRS:  NA 
#> #
#> # A directed acyclic multigraph with 1 component with spatially explicit edges
#> #
#> # A tibble: 4 × 1
#>         x
#>   <POINT>
#> 1   (0 0)
#> 2   (1 0)
#> 3   (1 1)
#> 4   (0 1)
#> #
#> # A tibble: 4 × 3
#>    from    to            x
#>   <int> <int> <LINESTRING>
#> 1     1     2   (0 0, 1 0)
#> 2     2     3   (1 0, 1 1)
#> 3     2     3   (1 0, 1 1)
#> # ℹ 1 more row
…
