2. Network pre-processing and cleaning
…
net = net %>%
  activate("edges") %>%
  arrange(edge_length()) %>%
  mutate(flow = flows, type = types, foo = foo, bar = bar)

net

#> # A sfnetwork with 15 nodes and 15 edges
#> #
#> # CRS:  NA 
#> #
#> # A directed multigraph with 3 components with spatially explicit edges
#> #
#> # A tibble: 15 × 7
#>    from    to              x  flow type    foo bar  
#>   <int> <int>   <LINESTRING> <int> <chr> <int> <chr>
#> 1    10     9 (6 1.2, 5.8 1)     2 path      5 c    
#> 2    11    10 (6.2 1, 6 1.2)     2 path      8 x    
#> 3     9    12 (5.8 1, 6 0.8)    10 path     13 b    
#> 4    12    11 (6 0.8, 6.2 1)     5 path      9 k    
#> 5    11    15   (6.2 1, 7 1)     4 path      7 p    
#> 6    10    13   (6 1.2, 6 2)     6 path      2 q    
#> # ℹ 9 more rows
#> #
#> # A tibble: 15 × 1
#>         x
#>   <POINT>
#> 1   (0 1)
#> 2   (2 1)
#> 3   (4 1)
#> # ℹ 12 more rows
…
clustered = clustered %>%
  mutate(cmp = group_components())

select(clustered, cls, cmp)

#> # A sfnetwork with 14 nodes and 14 edges
#> #
#> # CRS:  NA 
#> #
#> # A directed simple graph with 1 component with spatially explicit edges
#> #
#> # A tibble: 14 × 3
#>     cls   cmp       x
#>   <int> <int> <POINT>
#> 1     1     1   (0 1)
#> 2     2     1   (3 1)
#> 3     3     1   (4 1)
#> 4     4     1 (5.8 1)
#> 5     5     1   (3 2)
#> 6     6     1   (3 0)
#> # ℹ 8 more rows
#> #
#> # A tibble: 14 × 6
#>    from    to  flow type  .tidygraph_edge_index            x
#>   <int> <int> <dbl> <chr> <list>                <LINESTRING>
#> 1     2     3     2 road  <int [1]>               (3 1, 4 1)
#> 2     3     4     2 path  <int [1]>             (4 1, 5.8 1)
#> 3     5     2     9 road  <int [1]>               (3 2, 3 1)
#> # ℹ 11 more rows
…
