5. Spatial morphers
…
grouped_net = net %>%
  morph(to_linegraph) %>%
  mutate(group = group_louvain()) %>%
  unmorph()

grouped_net

#> # A sfnetwork with 701 nodes and 851 edges
#> #
#> # CRS:  EPSG:3035 
#> #
#> # An undirected multigraph with 14 components with spatially explicit edges
#> #
#> # A tibble: 701 × 1
#>            geometry
#>         <POINT [m]>
#> 1 (4151491 3207923)
#> 2 (4151474 3207946)
#> 3 (4151398 3207777)
#> 4 (4151370 3207673)
#> 5 (4151408 3207539)
#> 6 (4151421 3207592)
#> # ℹ 695 more rows
#> #
#> # A tibble: 851 × 6
#>    from    to name                  type                          geometry group
#>   <int> <int> <chr>                 <fct>                 <LINESTRING [m]> <int>
#> 1     1     2 Havixbecker Strasse   residential (4151491 3207923, 4151474…    17
#> 2     3     4 Pienersallee          secondary   (4151398 3207777, 4151390…     1
#> 3     5     6 Schulte-Bernd-Strasse residential (4151408 3207539, 4151417…     1
#> # ℹ 848 more rows
…
convert(net, to_complement)

#> # A sfnetwork with 701 nodes and 244503 edges
#> #
#> # CRS:  EPSG:3035 
#> #
#> # An undirected simple graph with 1 component with spatially implicit edges
#> #
#> # A tibble: 701 × 2
#>            geometry .tidygraph_node_index
#>         <POINT [m]>                 <int>
#> 1 (4151491 3207923)                     1
#> 2 (4151474 3207946)                     2
#> 3 (4151398 3207777)                     3
#> 4 (4151370 3207673)                     4
#> 5 (4151408 3207539)                     5
#> 6 (4151421 3207592)                     6
#> # ℹ 695 more rows
#> #
#> # A tibble: 244,503 × 2
#>    from    to
#>   <int> <int>
#> 1     1   701
#> 2     1   700
#> 3     1   699
#> # ℹ 244,500 more rows
…
#> # A sfnetwork with 701 nodes and 851 edges
#> #
#> # CRS:  EPSG:3035 
#> #
#> # An undirected multigraph with 14 components with spatially explicit edges
#> #
#> # A tibble: 701 × 4
#>            geometry bc_undir bc_dir bc_diff
#>         <POINT [m]>    <dbl>  <dbl>   <dbl>
#> 1 (4152048 3207854)    1159. 38279.  37120.
#> 2 (4152205 3207787)    1259. 38104.  36845.
#> 3 (4152057 3207685)   15129. 51935.  36806.
#> 4 (4152035 3207851)    1794. 37512.  35719.
#> 5 (4152207 3207791)    2453. 37754.  35301.
#> 6 (4152085 3207577)   17974. 52110.  34136.
#> # ℹ 695 more rows
#> #
#> # A tibble: 851 × 5
#>    from    to name                  type                                geometry
#>   <int> <int> <chr>                 <fct>                       <LINESTRING [m]>
#> 1   166   500 Havixbecker Strasse   residential (4151491 3207923, 4151474 32079…
#> 2   606   688 Pienersallee          secondary   (4151398 3207777, 4151390 32077…
#> 3   607   664 Schulte-Bernd-Strasse residential (4151408 3207539, 4151417 32075…
#> # ℹ 848 more rows
…
net %>%
  activate("edges") %>%
  convert(
    to_spatial_shortest_paths,
    from = 1, to = 100,
    weights = edge_length()
  )

#> # A sfnetwork with 26 nodes and 25 edges
#> #
#> # CRS:  EPSG:3035 
#> #
#> # An unrooted tree with spatially explicit edges
#> #
#> # A tibble: 25 × 6
#>    from    to name         type                   geometry .tidygraph_edge_index
#>   <int> <int> <chr>        <fct>          <LINESTRING [m]>                 <int>
#> 1     2     3 Pienersallee seco… (4151398 3207777, 415139…                     2
#> 2     6     7 Wilhelm-Raa… resi… (4151350 3207279, 415131…                    20
#> 3     9    11 NA           path  (4151322 3207076, 415132…                    96
#> 4    11    12 NA           path  (4151324 3207081, 415132…                    97
#> 5    13    14 Am Meckelba… resi… (4151323 3207085, 415134…                   107
#> 6     8    10 Pienersallee seco… (4151340 3207612, 415133…                   115
#> # ℹ 19 more rows
#> #
#> # A tibble: 26 × 2
#>            geometry .tidygraph_node_index
#>         <POINT [m]>                 <int>
#> 1 (4151491 3207923)                     1
#> 2 (4151398 3207777)                     3
#> 3 (4151370 3207673)                     4
#> # ℹ 23 more rows
…
points = st_geometry(net, "nodes")[c(2, 3)]

net %>%
  morph(to_spatial_subset, points, .pred = st_equals) %>%
  st_join(codes, join = st_intersects) %>%
  unmorph()
#> Subsetting by nodes

#> # A sfnetwork with 701 nodes and 851 edges
#> #
#> # CRS:  EPSG:3035 
#> #
#> # An undirected multigraph with 14 components with spatially explicit edges
#> #
#> # A tibble: 701 × 2
#>            geometry post_code
#>         <POINT [m]>     <dbl>
#> 1 (4151491 3207923)        NA
#> 2 (4151474 3207946)      1020
#> 3 (4151398 3207777)      1020
#> 4 (4151370 3207673)        NA
#> 5 (4151408 3207539)        NA
#> 6 (4151421 3207592)        NA
#> # ℹ 695 more rows
#> #
#> # A tibble: 851 × 5
#>    from    to name                  type                                geometry
#>   <int> <int> <chr>                 <fct>                       <LINESTRING [m]>
#> 1     1     2 Havixbecker Strasse   residential (4151491 3207923, 4151474 32079…
#> 2     3     4 Pienersallee          secondary   (4151398 3207777, 4151390 32077…
#> 3     5     6 Schulte-Bernd-Strasse residential (4151408 3207539, 4151417 32075…
#> # ℹ 848 more rows
…
net %>%
  morph(to_subgraph, building) %>%
  st_join(codes, join = st_intersects) %>%
  unmorph()

#> Subsetting by nodes

#> # A sfnetwork with 701 nodes and 851 edges
#> #
#> # CRS:  EPSG:3035 
#> #
#> # An undirected multigraph with 14 components with spatially explicit edges
#> #
#> # A tibble: 701 × 3
#>            geometry building post_code
#>         <POINT [m]> <lgl>        <dbl>
#> 1 (4151491 3207923) TRUE          1020
#> 2 (4151474 3207946) FALSE           NA
#> 3 (4151398 3207777) FALSE           NA
#> 4 (4151370 3207673) FALSE           NA
#> 5 (4151408 3207539) FALSE           NA
#> 6 (4151421 3207592) FALSE           NA
#> # ℹ 695 more rows
#> #
#> # A tibble: 851 × 5
#>    from    to name                  type                                geometry
#>   <int> <int> <chr>                 <fct>                       <LINESTRING [m]>
#> 1     1     2 Havixbecker Strasse   residential (4151491 3207923, 4151474 32079…
#> 2     3     4 Pienersallee          secondary   (4151398 3207777, 4151390 32077…
#> 3     5     6 Schulte-Bernd-Strasse residential (4151408 3207539, 4151417 32075…
#> # ℹ 848 more rows
…
# We make it work by temporarily transforming to a different CRS.
net %>%
  activate("edges") %>%
  morph(to_spatial_transformed, 4326) %>%
  mutate(azimuth = edge_azimuth()) %>%
  unmorph()

#> # A sfnetwork with 701 nodes and 851 edges
#> #
#> # CRS:  EPSG:3035 
#> #
#> # An undirected multigraph with 14 components with spatially explicit edges
#> #
#> # A tibble: 851 × 6
#>    from    to name                  type                        geometry azimuth
#>   <int> <int> <chr>                 <fct>               <LINESTRING [m]>   [rad]
#> 1     1     2 Havixbecker Strasse   residenti… (4151491 3207923, 415147…  -0.670
#> 2     3     4 Pienersallee          secondary  (4151398 3207777, 415139…  -2.91 
#> 3     5     6 Schulte-Bernd-Strasse residenti… (4151408 3207539, 415141…   0.203
#> 4     7     8 NA                    path       (4151885 3206698, 415186…  -0.968
#> 5     9    10 Welsingheide          residenti… (4151732 3207017, 415172…  -3.12 
#> 6    11    12 NA                    footway    (4152152 3206984, 415214…  -3.10 
#> # ℹ 845 more rows
#> #
#> # A tibble: 701 × 2
#>            geometry building
#>         <POINT [m]> <lgl>   
#> 1 (4151491 3207923) TRUE    
#> 2 (4151474 3207946) FALSE   
#> 3 (4151398 3207777) FALSE   
#> # ℹ 698 more rows
